{
  "type": "COG",
  "author": [
    "odinair"
  ],
  "min_python_version": [
    3,
    8,
    0
  ],
  "min_bot_version": "3.4.0",
  "install_msg": "**These cogs are unmaintained, and will not receive any updates going forward.**",
  "end_user_data_statement": "This cog stores user metadata such as user IDs and the IDs of roles created using this cog for basic functionality.",
  "requirements": [
    "https://py.odinair.xyz/swift-i18n/swift-i18n-v0.6.0.tar.gz"
  ],
  "hidden": true,
  "description": "Allow users to create vanity coloured roles\n\nRoles created by this cog give no permissions, and may be modified by the role's owner at any time.",
  "tags": [
    "roles",
    "fun",
    "colour",
    "color"
  ],
  "short": "Allow users to create vanity coloured roles"
}